%!PS-Adobe-3.0 EPSF-3.0
%%Creator: cairo 1.10.2 (http://cairographics.org)
%%CreationDate: Sun Jul 21 13:41:23 2013
%%Pages: 1
%%BoundingBox: 0 -1 81 80
%%DocumentData: Clean7Bit
%%LanguageLevel: 2
%%EndComments
%%BeginProlog
/cairo_eps_state save def
/dict_count countdictstack def
/op_count count 1 sub def
userdict begin
/q { gsave } bind def
/Q { grestore } bind def
/cm { 6 array astore concat } bind def
/w { setlinewidth } bind def
/J { setlinecap } bind def
/j { setlinejoin } bind def
/M { setmiterlimit } bind def
/d { setdash } bind def
/m { moveto } bind def
/l { lineto } bind def
/c { curveto } bind def
/h { closepath } bind def
/re { exch dup neg 3 1 roll 5 3 roll moveto 0 rlineto
      0 exch rlineto 0 rlineto closepath } bind def
/S { stroke } bind def
/f { fill } bind def
/f* { eofill } bind def
/n { newpath } bind def
/W { clip } bind def
/W* { eoclip } bind def
/BT { } bind def
/ET { } bind def
/pdfmark where { pop globaldict /?pdfmark /exec load put }
    { globaldict begin /?pdfmark /pop load def /pdfmark
    /cleartomark load def end } ifelse
/BDC { mark 3 1 roll /BDC pdfmark } bind def
/EMC { mark /EMC pdfmark } bind def
/cairo_store_point { /cairo_point_y exch def /cairo_point_x exch def } def
/Tj { show currentpoint cairo_store_point } bind def
/TJ {
  {
    dup
    type /stringtype eq
    { show } { -0.001 mul 0 cairo_font_matrix dtransform rmoveto } ifelse
  } forall
  currentpoint cairo_store_point
} bind def
/cairo_selectfont { cairo_font_matrix aload pop pop pop 0 0 6 array astore
    cairo_font exch selectfont cairo_point_x cairo_point_y moveto } bind def
/Tf { pop /cairo_font exch def /cairo_font_matrix where
      { pop cairo_selectfont } if } bind def
/Td { matrix translate cairo_font_matrix matrix concatmatrix dup
      /cairo_font_matrix exch def dup 4 get exch 5 get cairo_store_point
      /cairo_font where { pop cairo_selectfont } if } bind def
/Tm { 2 copy 8 2 roll 6 array astore /cairo_font_matrix exch def
      cairo_store_point /cairo_font where { pop cairo_selectfont } if } bind def
/g { setgray } bind def
/rg { setrgbcolor } bind def
/d1 { setcachedevice } bind def
%%EndProlog
%%Page: 1 1
%%BeginPageSetup
%%PageBoundingBox: 0 -1 81 80
%%EndPageSetup
q 0 -1 81 81 rectclip q
0 79.975 81 -80 re W n
0 g
4.086194 w
0 J
0 j
[] 0.0 d
4 M q 1 0 0 1 0 79.975189 cm
77.973 -39.988 m 77.973 -19.023 60.98 -2.031 40.016 -2.031 c 19.055 
-2.031 2.059 -19.023 2.059 -39.988 c 2.059 -60.949 19.055 -77.941 
40.016 -77.941 c 60.98 -77.941 77.973 -60.949 77.973 -39.988 c h
77.973 -39.988 m S Q
44.023 32.061 m 44.023 40.217 l 66.617 40.217 l 66.617 34.362 65.559 
29.721 63.445 26.296 c 61.328 22.878 58.258 20.186 54.227 18.217 c 
50.195 16.256 45.672 15.28 40.664 15.28 c 31.945 15.28 25.258 17.612 
20.602 22.28 c 15.945 26.956 13.617 32.889 13.617 40.077 c 13.617 
45.065 14.773 49.471 17.086 53.296 c 19.398 57.116 22.508 59.999 26.414 
61.936 c 30.32 63.881 34.559 64.858 39.133 64.858 c 45.602 64.858 
50.637 63.284 54.242 60.139 c 54.242 64.092 l 62.43 64.092 l 62.43 
46.967 l 54.242 46.967 l 53.387 49.862 51.688 52.139 49.148 53.796 c 
46.605 55.46 43.883 56.296 40.977 56.296 c 37.133 56.296 33.855 54.936 
31.148 52.217 c 28.449 49.506 27.102 45.749 27.102 40.936 c 27.102 
35.436 28.477 31.249 31.227 28.374 c 33.977 25.499 37.328 24.061 41.289 
24.061 c 44.195 24.061 46.605 24.764 48.523 26.171 c 50.438 27.577 
51.766 29.538 52.508 32.061 c h
44.023 32.061 m f
Q Q
showpage
%%Trailer
count op_count sub {pop} repeat
countdictstack dict_count sub {end} repeat
cairo_eps_state restore
%%EOF
